[
  {
    "category_id": "a8f5fc23-4883-48ab-b371-180088351f21",
    "category_name": "Books"
  },
  {
    "category_id": "9710af81-4b4d-4ca6-8267-1051991fac0b",
    "category_name": "Home",
    "parent_id": "a8f5fc23-4883-48ab-b371-180088351f21"
  },
  {
    "category_id": "19d343f5-3f1d-496a-ae42-658cc99dec09",
    "category_name": "Electronics",
    "parent_id": "a8f5fc23-4883-48ab-b371-180088351f21"
  },
  {
    "category_id": "ee8ef8b6-c20a-42e5-b6fe-108039b66f7a",
    "category_name": "Baby",
    "parent_id": "a8f5fc23-4883-48ab-b371-180088351f21"
  },
  {
    "category_id": "0dea8558-d901-4e34-930c-5bf90eac9a6e",
    "category_name": "Clothing"
  },
  {
    "category_id": "3b5d0eb1-f4c1-410e-a777-fa85241496f7",
    "category_name": "Grocery",
    "parent_id": "a8f5fc23-4883-48ab-b371-180088351f21"
  },
  {
    "category_id": "2a8df192-517c-4366-9b24-77433546b7de",
    "category_name": "Health"
  },
  {
    "category_id": "ebc3e62b-30b3-4d0d-9985-8580fb633967",
    "category_name": "Jewelery"
  },
  {
    "category_id": "869ff360-d840-4599-95c3-d9aa75a75a1d",
    "category_name": "Garden"
  },
  {
    "category_id": "98002ce9-9d9f-4a17-9d96-dd388627c2ee",
    "category_name": "Sports",
    "parent_id": "a8f5fc23-4883-48ab-b371-180088351f21"
  }
]
